EDA
…
health_data

# A tibble: 253,680 × 22
   Diabetes_binary HighBP HighChol CholCheck   BMI Smoker Stroke
   <fct>           <fct>  <fct>    <fct>     <dbl> <fct>  <fct> 
 1 NoDiabetes      Yes    Yes      Yes          40 Yes    No    
 2 NoDiabetes      No     No       No           25 Yes    No    
 3 NoDiabetes      Yes    Yes      Yes          28 No     No    
 4 NoDiabetes      Yes    No       Yes          27 No     No    
 5 NoDiabetes      Yes    Yes      Yes          24 No     No    
 6 NoDiabetes      Yes    Yes      Yes          25 Yes    No    
 7 NoDiabetes      Yes    No       Yes          30 Yes    No    
 8 NoDiabetes      Yes    Yes      Yes          25 Yes    No    
 9 Diabetes        Yes    Yes      Yes          30 Yes    No    
10 NoDiabetes      No     No       Yes          24 No     No    
# ℹ 253,670 more rows
# ℹ 15 more variables: HeartDiseaseorAttack <fct>, PhysActivity <fct>,
#   Fruits <fct>, Veggies <fct>, HvyAlcoholConsump <fct>, AnyHealthcare <fct>,
#   NoDocbcCost <fct>, GenHlth <fct>, MentHlth <dbl>, PhysHlth <dbl>,
#   DiffWalk <fct>, Sex <fct>, Age <fct>, Education <fct>, Income <fct>
…
