Modeling
…
print(health_data)

# A tibble: 253,680 × 22
   Diabetes_binary HighBP HighChol CholCheck   BMI Smoker Stroke
   <fct>           <fct>  <fct>    <fct>     <dbl> <fct>  <fct> 
 1 NoDiabetes      Yes    Yes      Yes          40 Yes    No    
 2 NoDiabetes      No     No       No           25 Yes    No    
 3 NoDiabetes      Yes    Yes      Yes          28 No     No    
 4 NoDiabetes      Yes    No       Yes          27 No     No    
 5 NoDiabetes      Yes    Yes      Yes          24 No     No    
 6 NoDiabetes      Yes    Yes      Yes          25 Yes    No    
 7 NoDiabetes      Yes    No       Yes          30 Yes    No    
 8 NoDiabetes      Yes    Yes      Yes          25 Yes    No    
 9 Diabetes        Yes    Yes      Yes          30 Yes    No    
10 NoDiabetes      No     No       Yes          24 No     No    
# ℹ 253,670 more rows
# ℹ 15 more variables: HeartDiseaseorAttack <fct>, PhysActivity <fct>,
#   Fruits <fct>, Veggies <fct>, HvyAlcoholConsump <fct>, AnyHealthcare <fct>,
#   NoDocbcCost <fct>, GenHlth <fct>, MentHlth <dbl>, PhysHlth <dbl>,
#   DiffWalk <fct>, Sex <fct>, Age <fct>, Education <fct>, Income <fct>
…
...
and 34 more lines.

The tree splits first on high blood pressure and BMI, and later on variables like heart disease, physical activity, and smoking. This indicates that high blood pressure and higher BMI are key drivers in separating people with and without diabetes in this dataset.

Evaluate the model on the test set

# TRY

tree_pred <- predict(final_tree, diabetes_test, type = "prob") |>
  bind_cols(diabetes_test |> select(Diabetes_binary))

print(tree_pred)

# A tibble: 76,105 × 3
   .pred_NoDiabetes .pred_Diabetes Diabetes_binary
              <dbl>          <dbl> <fct>          
 1            0.812         0.188  NoDiabetes     
 2            0.812         0.188  Diabetes       
 3            0.954         0.0464 NoDiabetes     
 4            0.954         0.0464 Diabetes       
 5            0.954         0.0464 NoDiabetes     
 6            0.812         0.188  NoDiabetes     
 7            0.812         0.188  Diabetes       
 8            0.954         0.0464 NoDiabetes     
 9            0.954         0.0464 NoDiabetes     
10            0.812         0.188  Diabetes       
# ℹ 76,095 more rows
…
